Vast Challenge Part 2
…
2.6.1.2 Splitting the timestamp data into individual date, time and day columns.

To allow us to dive deeper into our analysis later, we will split the timestamp dataset into date, time and day columns. We will first add more columns by using the mutate function from dplyr to add day, date and time columns in the cc dataset and importing in to the cc_dtsplit object.

There is no need to add columns for the loyatly dataset as we will join both the datasets together in which day will be included in the joined dataset.

cc_dtsplit <- cc %>%
  mutate(day = date_weekday_factor(cc$timestamp), date =  as_date(cc$timestamp), time = format(cc$timestamp, format = "%H:%M"))

cc_dtsplit

# A tibble: 1,490 x 7
   timestamp           location      price last4ccnum day   date      
   <dttm>              <chr>         <dbl> <fct>      <ord> <date>    
 1 2014-01-06 07:28:00 Brew've Been~ 11.3  4795       Mon   2014-01-06
 2 2014-01-06 07:34:00 Hallowed Gro~ 52.2  7108       Mon   2014-01-06
 3 2014-01-06 07:35:00 Brew've Been~  8.33 6816       Mon   2014-01-06
 4 2014-01-06 07:36:00 Hallowed Gro~ 16.7  9617       Mon   2014-01-06
 5 2014-01-06 07:37:00 Brew've Been~  4.24 7384       Mon   2014-01-06
 6 2014-01-06 07:38:00 Brew've Been~  4.17 5368       Mon   2014-01-06
 7 2014-01-06 07:42:00 Coffee Camel~ 28.7  7253       Mon   2014-01-06
 8 2014-01-06 07:43:00 Brew've Been~  9.6  4948       Mon   2014-01-06
 9 2014-01-06 07:43:00 Brew've Been~ 16.9  9683       Mon   2014-01-06
10 2014-01-06 07:47:00 Hallowed Gro~ 16.5  8129       Mon   2014-01-06
# ... with 1,480 more rows, and 1 more variable: time <chr>
…
loyalty_dt_bar

Next, an inner join will be conducted by joining date, location and price and will will output into a new object cc_loyalty_join.

Notice that there are only 1,087 rows wheareas both cc_dtsplit and loyalty_dt has 1490 and 1392 rows respectfully. These shows that some of the data in cc does not match the loyalty data which strengthens the initial anomaly that some of the employees uses one of each card but not both during purchases.

cc_loyalty_join <- cc_dtsplit %>%
  inner_join(loyalty_dt, by = c("date","location", "price"))

cc_loyalty_join

# A tibble: 1,087 x 8
   timestamp           location      price last4ccnum day   date      
   <dttm>              <chr>         <dbl> <fct>      <ord> <date>    
 1 2014-01-06 07:28:00 Brew've Been~ 11.3  4795       Mon   2014-01-06
 2 2014-01-06 07:35:00 Brew've Been~  8.33 6816       Mon   2014-01-06
 3 2014-01-06 07:36:00 Hallowed Gro~ 16.7  9617       Mon   2014-01-06
 4 2014-01-06 07:37:00 Brew've Been~  4.24 7384       Mon   2014-01-06
 5 2014-01-06 07:38:00 Brew've Been~  4.17 5368       Mon   2014-01-06
 6 2014-01-06 07:43:00 Brew've Been~  9.6  4948       Mon   2014-01-06
 7 2014-01-06 07:43:00 Brew've Been~ 16.9  9683       Mon   2014-01-06
 8 2014-01-06 07:47:00 Hallowed Gro~ 16.5  8129       Mon   2014-01-06
 9 2014-01-06 07:48:00 Hallowed Gro~ 10.7  3492       Mon   2014-01-06
10 2014-01-06 07:49:00 Coffee Camel~  8.39 5921       Mon   2014-01-06
# ... with 1,077 more rows, and 2 more variables: time <chr>,
#   loyaltynum <fct>

After joining the dataset, we found that there are 1087 rows of data available. This means that some of the credit card purchases are not linked to any of the loyalty card, vice versa, some of the loyalty card are not linked to the credit card purchases. These strengthen the anomaly that we have highlighted before. We will take a look at those datasets that does not match later.

Before we begin further analysis on further anomalies between the two datasets. We shall conduct some exploratory data analysis. First, we will analyse the most popular place visited during the duration of study.

To do the above, we will group all the location by the number of visitations. Taking a look at the raw output, we can see that the 4 most visited place is the same four as mentioned previosuly.

cc_location_count <- cc_loyalty_join %>%
  group_by(location) %>%
  summarize(count = n()) %>%
  arrange(desc(count))

cc_location_count

# A tibble: 32 x 2
   location               count
   <chr>                  <int>
 1 "Katerina\u0012s Cafi"   155
 2 "Guy's Gyros"            121
 3 "Hippokampos"            117
 4 "Brew've Been Served"    111
 5 "Ouzeri Elian"            62
 6 "Hallowed Grounds"        60
 7 "Kalami Kafenion"         53
 8 "Abila Zacharo"           52
 9 "Gelatogalore"            48
10 "Bean There Done That"    36
# ... with 22 more rows
…
cc_join

From the chart above, we can observe that â€œKaterineâ€s Cafe" (155 counts), â€œGuyâ€™s Gyrosâ€ (121 counts), â€œHippokamposâ€ (117 counts), â€œBrewâ€™ve Been Serveâ€ (111 counts) have the most visitation during the period of study. If we take a look closely, the 4th most visited place is actually around 2x the 5th most visited place. This shows that top 4 most visited places takes up most of places visited by patrons.

Although we have shown the overall most visited places. However, the more interesting analysis lies in when are the places visited by patrons. As such, we will group the joined data by location, date, day and time to see at which point of time was the location the most.

cc_loyalty_group <- cc_loyalty_join %>%
  group_by(location,date,day,time) %>%
  summarize(count = n()) %>%
  arrange(desc(count)) %>%
  ungroup()

cc_loyalty_group

# A tibble: 992 x 5
   location             date       day   time  count
   <chr>                <date>     <ord> <chr> <int>
 1 Bean There Done That 2014-01-13 Mon   12:00     6
 2 Bean There Done That 2014-01-06 Mon   12:00     5
 3 Bean There Done That 2014-01-10 Fri   12:00     5
 4 Bean There Done That 2014-01-17 Fri   12:00     5
 5 Bean There Done That 2014-01-16 Thu   12:00     4
 6 Guy's Gyros          2014-01-19 Sun   19:45     4
 7 Jack's Magical Beans 2014-01-13 Mon   12:00     4
 8 Jack's Magical Beans 2014-01-16 Thu   12:00     4
 9 Bean There Done That 2014-01-14 Tue   12:00     3
10 Bean There Done That 2014-01-15 Wed   12:00     3
# ... with 982 more rows
…
cc_timeseries

Next, we will analyse the highest frequented location based on day and time. To do that, we will need to use this unite to combine both day and time together and group the, by location and daytime.

cc_loyalty_day <- cc_loyalty_join %>%
  unite(col = "daytime", day,time, sep = " ",  remove =FALSE) %>%
  group_by(location, daytime) %>%
  summarize(count = n()) %>%
  arrange(desc(count))

cc_loyalty_day

# A tibble: 937 x 3
# Groups:   location [32]
   location             daytime   count
   <chr>                <chr>     <int>
 1 Bean There Done That Mon 12:00    11
 2 Bean There Done That Fri 12:00    10
 3 Jack's Magical Beans Mon 12:00     7
 4 Bean There Done That Thu 12:00     6
 5 Jack's Magical Beans Thu 12:00     6
 6 Bean There Done That Wed 12:00     5
 7 Brewed Awakenings    Fri 12:00     5
 8 Brewed Awakenings    Mon 12:00     5
 9 Jack's Magical Beans Fri 12:00     5
10 Jack's Magical Beans Wed 12:00     5
# ... with 927 more rows
…
cc_day

Having completed some EDA by inner joining both cc and loyalty dataset. We will sieve out those dataset that were in cc but not in loyalty. The method to do this is by using anti-join. Anti-join will take out those dataset that does not belongs to the secondary dataset but in the main dataset.

This method is similar to full join therafter sieving those NA values.

From the anti-joined data below, we are able to see that there are 409 rows that were in cc but not in loyalty. This form an anomaly that cc were used in the purchases but not the loyalty card.

cc_loyalty_antijoin <- cc_dtsplit %>%
  anti_join(loyalty_dt, by = c("date","location", "price"))

cc_loyalty_antijoin

# A tibble: 409 x 7
   timestamp           location      price last4ccnum day   date      
   <dttm>              <chr>         <dbl> <fct>      <ord> <date>    
 1 2014-01-06 07:34:00 Hallowed Gr~ 5.22e1 7108       Mon   2014-01-06
 2 2014-01-06 07:42:00 Coffee Came~ 2.87e1 7253       Mon   2014-01-06
 3 2014-01-06 07:52:00 Brew've Bee~ 3.28e1 9405       Mon   2014-01-06
 4 2014-01-06 07:54:00 Hallowed Gr~ 1.69e1 7889       Mon   2014-01-06
 5 2014-01-06 07:54:00 Hallowed Gr~ 3.29e1 2681       Mon   2014-01-06
 6 2014-01-06 08:00:00 Hallowed Gr~ 9.69e0 6691       Mon   2014-01-06
 7 2014-01-06 08:14:00 Coffee Came~ 3.2 e0 2418       Mon   2014-01-06
 8 2014-01-06 12:00:00 Coffee Shack 5.15e1 7117       Mon   2014-01-06
 9 2014-01-06 12:00:00 Jack's Magi~ 2.78e1 8156       Mon   2014-01-06
10 2014-01-06 12:16:00 Abila Airpo~ 1.87e3 8642       Mon   2014-01-06
# ... with 399 more rows, and 1 more variable: time <chr>
…
cc_anti

Next, we will group the anti joined dataset to extract the number of visitations at a point of time. Based on the raw grouped data below, we can see that the count of visitations is quite linear with no high variations observed.

cc_loyalty_anti_group <- cc_loyalty_antijoin %>%
  group_by(location, day, date, time) %>%
  summarize(count = n()) %>%
  arrange(desc(count)) %>%
  ungroup()

cc_loyalty_anti_group

# A tibble: 391 x 5
   location             day   date       time  count
   <chr>                <ord> <date>     <chr> <int>
 1 Bean There Done That Tue   2014-01-07 12:00     3
 2 Brewed Awakenings    Tue   2014-01-07 12:00     3
 3 Jack's Magical Beans Thu   2014-01-09 12:00     3
 4 Bean There Done That Tue   2014-01-14 12:00     2
 5 Bean There Done That Wed   2014-01-08 12:00     2
 6 Brew've Been Served  Fri   2014-01-10 07:56     2
 7 Guy's Gyros          Tue   2014-01-07 20:10     2
 8 Hallowed Grounds     Mon   2014-01-06 07:54     2
 9 Hallowed Grounds     Wed   2014-01-08 07:39     2
10 Hallowed Grounds     Thu   2014-01-16 07:51     2
# ... with 381 more rows
…
cc_anti_timeseries

Similar to the above inner joined dataset, we will create a daytime column to observe which daytime has the highest count.

cc_loyalty_day_anti <- cc_loyalty_antijoin %>%
  unite(col = "daytime", day,time, sep = " ",  remove =FALSE) %>%
  group_by(location, daytime) %>%
  summarize(count = n()) %>%
  arrange(desc(count))

cc_loyalty_day_anti

# A tibble: 379 x 3
# Groups:   location [31]
   location             daytime   count
   <chr>                <chr>     <int>
 1 Bean There Done That Tue 12:00     5
 2 Jack's Magical Beans Tue 12:00     4
 3 Bean There Done That Wed 12:00     3
 4 Brewed Awakenings    Tue 12:00     3
 5 Hallowed Grounds     Thu 07:51     3
 6 Hallowed Grounds     Wed 07:39     3
 7 Jack's Magical Beans Thu 12:00     3
 8 Jack's Magical Beans Wed 12:00     3
 9 Bean There Done That Thu 12:00     2
10 Brew've Been Served  Fri 07:56     2
# ... with 369 more rows
…
cc_anti_day

Next, we will anti join from loyalty to cc.

Based on the anti-joined data, we observe that there are 311 rows of transaction which uses loyalty card with no credit card.

cc_loyalty_antijoin_right <- loyalty_dt%>%
  anti_join(cc_dtsplit, by = c("date","location", "price")) %>%
  ungroup()

cc_loyalty_antijoin_right

# A tibble: 311 x 4
   date       location                    price loyaltynum
   <date>     <chr>                       <dbl> <fct>     
 1 2014-01-06 "Coffee Shack"              11.5  L6417     
 2 2014-01-06 "Hallowed Grounds"          12.9  L1107     
 3 2014-01-06 "Abila Zacharo"             26.9  L9018     
 4 2014-01-06 "Katerina\u0012s Cafi"      38.6  L6110     
 5 2014-01-06 "Frydos Autosupply n' More" 89.3  L4034     
 6 2014-01-07 "Hallowed Grounds"           8.42 L1107     
 7 2014-01-07 "Coffee Cameleon"           12.4  L9018     
 8 2014-01-07 "Ouzeri Elian"              17.7  L2247     
 9 2014-01-07 "Katerina\u0012s Cafi"      25.0  L2343     
10 2014-01-08 "Brew've Been Served"       14.9  L2247     
# ... with 301 more rows

Notice that there is no day after the anti join was performed this is due to the fact that originally, the loyalty_dt dataset does not have the day included. As such, day is being created using the date_weekday_factor function.

cc_loyalty_antijoin_mutate <- cc_loyalty_antijoin_right %>%
  mutate(day = date_weekday_factor(cc_loyalty_antijoin_right$date))
cc_loyalty_antijoin_mutate

# A tibble: 311 x 5
   date       location                    price loyaltynum day  
   <date>     <chr>                       <dbl> <fct>      <ord>
 1 2014-01-06 "Coffee Shack"              11.5  L6417      Mon  
 2 2014-01-06 "Hallowed Grounds"          12.9  L1107      Mon  
 3 2014-01-06 "Abila Zacharo"             26.9  L9018      Mon  
 4 2014-01-06 "Katerina\u0012s Cafi"      38.6  L6110      Mon  
 5 2014-01-06 "Frydos Autosupply n' More" 89.3  L4034      Mon  
 6 2014-01-07 "Hallowed Grounds"           8.42 L1107      Tue  
 7 2014-01-07 "Coffee Cameleon"           12.4  L9018      Tue  
 8 2014-01-07 "Ouzeri Elian"              17.7  L2247      Tue  
 9 2014-01-07 "Katerina\u0012s Cafi"      25.0  L2343      Tue  
10 2014-01-08 "Brew've Been Served"       14.9  L2247      Wed  
# ... with 301 more rows
…
cc_anti_right

Next, we will group the right anti joined dataset to get the count per day based on location.

From the below chart, we can see that Hallowed Grounds have the highest count of 6 visitations on 2014-01-09.

cc_loyalty_day_anti_right <- cc_loyalty_antijoin_mutate %>%
  group_by(location, date,day) %>%
  summarize(count = n()) %>%
  arrange(desc(count)) %>%
  ungroup()

cc_loyalty_day_anti_right

# A tibble: 161 x 4
   location               date       day   count
   <chr>                  <date>     <ord> <int>
 1 "Hallowed Grounds"     2014-01-09 Thu       6
 2 "Brew've Been Served"  2014-01-08 Wed       5
 3 "Brew've Been Served"  2014-01-09 Thu       5
 4 "Brew've Been Served"  2014-01-10 Fri       5
 5 "Guy's Gyros"          2014-01-15 Wed       5
 6 "Hippokampos"          2014-01-10 Fri       5
 7 "Katerina\u0012s Cafi" 2014-01-13 Mon       5
 8 "Katerina\u0012s Cafi" 2014-01-14 Tue       5
 9 "Katerina\u0012s Cafi" 2014-01-16 Thu       5
10 "Abila Zacharo"        2014-01-13 Mon       4
# ... with 151 more rows
…
